00000000 .text
0000084f .rodata
000008d4 .eh_frame
00000b20 .data
00000b68 .bss
00000000 .comment
00000000 .debug_aranges
00000000 .debug_info
00000000 .debug_abbrev
00000000 .debug_line
00000000 .debug_str
00000000 .debug_loc
00000000 date.c
00000000 ulib.c
00000083 stosb
00000000 printf.c
000003c2 putc
000003e5 printint
00000b54 digits.1128
00000000 umalloc.c
00000b68 base
00000b70 freep
0000070c morecore
000000a9 strcpy
00000392 getgid
00000499 printf
00000295 memmove
00000322 mknod
000003ba setpriority
0000018c gets
0000035a getpid
0000038a getuid
0000076c malloc
0000036a sleep
000002ea pipe
000002fa write
00000332 fstat
0000030a kill
0000034a chdir
00000312 exec
000002e2 wait
000003aa setgid
000002f2 read
0000032a unlink
000002d2 fork
00000362 sbrk
00000372 uptime
00000b65 __bss_start
0000013f memset
00000000 main
0000039a getppid
000000d9 strcmp
00000352 dup
000003b2 getprocs
000001fb stat
00000b65 _edata
00000b74 _end
00000382 date
0000037a halt
0000033a link
000002da exit
00000248 atoi
00000118 strlen
0000031a open
00000159 strchr
00000b20 months
000003a2 setuid
00000342 mkdir
00000302 close
0000062a free
