80100000 .text
8010a0f0 .rodata
8010af9e .stab
8010af9f .stabstr
8010b000 .data
8010d5c0 .bss
00000000 .debug_line
00000000 .debug_info
00000000 .debug_abbrev
00000000 .debug_aranges
00000000 .debug_loc
00000000 .debug_str
00000000 .comment
00000000 .debug_ranges
00000000 bio.c
801000b3 bget
00000000 console.c
801002d4 inb
801002f1 outb
80100310 cli
8010d5c0 panicked
8010d5e0 cons
80100317 printint
8010b004 digits.1633
80100792 consputc
8010b000 crt
80100601 cgaputc
00000000 exec.c
00000000 file.c
00000000 fs.c
80101464 bzero
801014b8 balloc
80101604 bfree
801018ef iget
80101e0c itrunc
80101ced bmap
80102402 skipelem
801024a6 namex
00000000 ide.c
801025fd inb
8010261a insl
80102640 outb
8010265f outsl
8010d620 idelock
8010d654 idequeue
8010d658 havedisk1
80102685 idewait
80102778 idestart
00000000 ioapic.c
80102a90 ioapicread
80102aa7 ioapicwrite
00000000 kalloc.c
80102bc0 v2p
00000000 kbd.c
80102d59 inb
8010b020 shiftcode
8010b120 togglecode
8010b220 normalmap
8010b320 shiftmap
8010b420 ctlmap
8010d65c shift.1461
8010b520 charcode.1462
00000000 lapic.c
80102ede inb
80102efb outb
80102f1a readeflags
80102f2a lapicw
8010d660 n.1542
801031c5 cmos_read
801031f5 fill_rtcdate
00000000 log.c
801035c9 recover_from_log
8010341a install_trans
801034d2 read_head
80103546 write_head
801037f3 commit
8010373b write_log
00000000 main.c
801038f9 v2p
80103906 p2v
80103913 xchg
80103a43 startothers
801039fd mpmain
801039e3 mpenter
00000000 mp.c
80103b2e p2v
80103b3b inb
80103b58 outb
8010d664 bcpu
80103b95 sum
80103bcd mpsearch1
80103c39 mpsearch
80103cf5 mpconfig
00000000 picirq.c
80103f65 outb
8010d000 irqmask
80103f84 picsetmask
00000000 pipe.c
00000000 proc.c
801044dc hlt
801044e3 readeflags
801044f3 sti
8010d668 initproc
80104518 allocproc
801065ac addToEmbryoList
80106616 removeFromEmbryoList
80105e39 addToFreeList
80105e9a initFreeList
80105fc2 addToReadyList
801054f3 wakeup1
8010674a removeFromRunningList
80106376 addToZombieList
801064cc removeFromZombieList
80106827 promoteReady
80106923 promoteList
801066e0 addToRunningList
8010696e demote
8010d020 first.1740
80106232 addToSleepList
801062ac removeFromSleepList
8010d008 states
00000000 spinlock.c
801069db readeflags
801069eb cli
801069f2 sti
801069f9 xchg
00000000 string.c
80106c4c stosb
80106c72 stosl
00000000 syscall.c
8010d040 syscalls
00000000 sysfile.c
801070f9 argfd
8010716d fdalloc
80107527 isdirempty
8010776d create
00000000 sysproc.c
80107e6a outw
00000000 timer.c
801081b2 outb
00000000 trap.c
80108239 atom_inc
80108245 lidt
8010826f rcr2
00000000 uart.c
80108648 inb
80108665 outb
8010d66c uart
801087dd uartgetc
00000000 vm.c
801092ab lgdt
801092d5 ltr
801092ec loadgs
80109302 lcr3
8010930e v2p
8010931b p2v
8010979d walkpgdir
8010983d mappages
8010d4c0 kmap
80108039 sys_getgid
80100a2d consoleread
80109203 vector242
80108c5a vector119
8010000c entry
80108b3a vector87
80108b31 vector86
80106e9b safestrcpy
801072e4 sys_close
8010926f vector251
80108b5e vector91
80108954 vector33
80108e43 vector162
80105310 yield
80114280 log
80114240 kmem
801090a7 vector213
80108bf7 vector108
80108684 uartinit
801089ae vector43
801030c3 lapiceoi
801081d1 timerinit
80108e67 vector165
80108f57 vector185
80102ac2 ioapicinit
80108c36 vector115
8010615c countSleepList
8010122e fileread
80108c75 vector122
80107ef8 sys_sbrk
80114360 ioapicid
8010815f sys_setpriority
80108dfb vector156
80107fbf sys_halt
80109227 vector245
80114234 ioapic
80108f87 vector189
80108878 vector7
80108a50 vector61
80108903 vector24
80108c12 vector111
8010900b vector200
80108a86 vector67
80108d23 vector138
80108ac5 vector74
8010520c sched
80106d57 memmove
80108a2c vector57
80107073 syscall
801090b3 vector214
80108ba6 vector99
801020cd writei
8010802b sys_getuid
80108d47 vector141
80107e8b sys_fork
8010e680 bcache
80108ebb vector172
801091f7 vector241
80114364 ismp
80106aee getcallerpcs
80107adc sys_mkdir
80109287 vector253
80108854 vector3
8010884b vector2
80102255 namecmp
8010914f vector227
80109083 vector210
80107042 argstr
8010912b vector224
80105c05 setpriority
8010899c vector41
801003c6 cprintf
8010109e filedup
801025c6 namei
801088e8 vector21
80100034 binit
80108ef7 vector177
80108c51 vector118
80108aa1 vector70
80108a98 vector69
801091c7 vector237
80108a6b vector64
8010891e vector27
80108cdb vector132
80108f63 vector186
8010720e sys_read
801090d7 vector217
80106f21 fetchint
801098cd setupkvm
80106dd7 memcpy
80109dfa freevm
80108842 vector1
80108f03 vector178
80108981 vector38
80102c67 kfree
801091d3 vector238
80101bd8 iput
80108ce7 vector133
80108abc vector73
80108d6b vector144
80109293 vector254
80101422 readsb
8010d004 nextpid
80108bb8 vector101
8010908f vector211
80103da0 mpinit
80108ed3 vector174
8010920f vector243
8010306a cpunum
80101013 fileinit
80117920 gdt
80106a13 initlock
80108cab vector128
8010a051 copyout
80108b04 vector81
801053ec sleep
801030de microdelay
801088a6 vector13
801089f6 vector51
801088bd vector16
801127a0 input
801091eb vector240
80108a11 vector54
801088d6 vector19
80108b67 vector92
8010921b vector244
80101f30 stati
80108d3b vector140
80107eb7 sys_kill
801089c0 vector45
80108af2 vector79
80104232 pipeclose
80109167 vector229
80108e13 vector158
80107333 sys_fstat
80100b3e consolewrite
8010898a vector39
80108e8b vector168
80103677 end_op
80108966 vector35
80108c24 vector113
80102c2a freerange
80108c90 vector125
80109c74 allocuvm
8010822e trapret
801090cb vector216
80108a62 vector63
80108915 vector26
80108fb7 vector193
80102f4c lapicinit
80108fdb vector196
80109077 vector209
8010885d vector4
80108ea3 vector170
8010d670 stack
80108d0b vector136
80108891 vector10
80109053 vector206
80101b66 iunlock
80107f44 sys_sleep
8010929f vector255
80108f27 vector181
80108a3e vector59
80108b28 vector85
80108b1f vector84
80108f3f vector183
80105ef7 recursiveCountFreeList
80108e1f vector159
8010909b vector212
80107383 sys_link
801089d2 vector47
8010915b vector228
801089a5 vector42
80108c2d vector114
80109ff7 uva2ka
80108edf vector175
80108d5f vector143
80101031 filealloc
80105595 wakeup
80108cc3 vector130
80109233 vector246
801080bd sys_setgid
80108888 vector9
80108d53 vector142
80108baf vector100
80109017 vector201
8010604b countReadyList
80109e9a clearpteu
80108280 tvinit
80108a47 vector60
801088fa vector23
801019ce idup
801091bb vector236
80102ec5 kbdintr
8010793f sys_open
8010917f vector231
80108a7d vector66
80108930 vector29
80101f76 readi
80108cff vector135
801007f9 consoleintr
801055cc kill
80108ae0 vector77
80101757 ialloc
80108f1b vector180
80117958 kpgdir
8010906b vector208
80103266 cmostime
80108820 uartintr
80108b9d vector98
80108b94 vector97
80108eeb vector176
80108fc3 vector194
8010894b vector32
8011795c end
80108fff vector199
80108ccf vector131
8010927b vector252
801012e6 filewrite
80108839 vector0
80106fbd argint
80100c0f exec
80108d77 vector145
80107279 sys_write
80106a9c release
80106f5b fetchstr
80108bee vector107
80108993 vector40
80104e67 wait
80108bc1 vector102
8010c000 entrypgdir
0010000c _start
80108a23 vector56
80108a8f vector68
8010886f vector6
8010d52c _binary_initcode_end
80100000 multiboot_header
80108cb7 vector129
80105082 scheduler
80102270 dirlookup
80108fe7 vector197
801010ef fileclose
801035eb begin_op
80108dcb vector152
8010997f kvmalloc
80109173 vector230
80106ded strncmp
80108978 vector37
80109047 vector205
80108e37 vector161
801042dc pipewrite
80106e43 strncpy
80108aaa vector71
80109edb copyuvm
80112840 ftable
80108e2b vector160
80106fe5 argptr
801090bf vector215
80108e07 vector157
801071b7 sys_dup
80108c1b vector112
80100566 panic
801053a6 forkret
80108f33 vector182
8010889f vector12
80106cff memcmp
80102d76 kbdgetc
80108c00 vector109
801088df vector20
801049a3 fork
80108070 sys_setuid
80108a08 vector53
801088cd vector18
0000008a _binary_entryother_size
80114380 cpus
80108b82 vector95
80106b68 holding
80113240 sb
80106a35 acquire
80109143 vector226
801025e2 nameiparent
801089e4 vector49
801089b7 vector44
8011427c lapic
80108ae9 vector78
8010820e alltraps
80108ec7 vector173
80108c48 vector117
80108b0d vector82
80103fc9 picenable
80109113 vector222
80108881 vector8
80108da7 vector149
8010182e iupdate
8010b000 data
80106c98 memset
8010918b vector232
8010392d main
80109997 switchkvm
80108be5 vector106
801090fb vector220
80108b55 vector90
80108e4f vector163
801091a3 vector234
80103823 log_write
8010758a sys_unlink
80108a59 vector62
8010890c vector25
80108ff3 vector198
80107ff1 sys_date
80108c63 vector120
8010d52c _binary_entryother_start
80102bcd kinit1
801089ed vector50
801088b4 vector15
80108dbf vector151
80108b16 vector83
80108b4c vector89
80108b43 vector88
801083f9 trap
80107fac sys_uptime
80108f0f vector179
8010895d vector34
801089c9 vector46
80108cf3 vector134
8010911f vector223
80117100 idt
801090e3 vector218
801044fa pinit
80109d3d deallocuvm
80109137 vector225
80108f6f vector187
80104900 growproc
80114960 ncpu
80108939 vector30
801046e6 userinit
801063e2 countZombieList
801001b6 bread
80108ca2 vector127
801043da piperead
80117900 ticks
80108fab vector192
80108e73 vector166
80100bb7 consoleinit
80108ad7 vector76
80108ace vector75
801028d6 ideintr
80108fcf vector195
80108db3 vector150
80108a35 vector58
8010924b vector248
80108c7e vector123
80108b8b vector96
80108942 vector31
8010902f vector203
80108d2f vector139
80108dd7 vector153
80108e5b vector164
8010579e procdump
80108c6c vector121
80108778 uartputc
80108866 vector5
80108e7f vector167
80108def vector155
80109257 vector249
8010022e brelse
80105a0a getProcInfo
80109263 vector250
80108c87 vector124
80108c09 vector110
8010903b vector204
80101a08 ilock
80107c8b sys_exec
80105f45 countFreeList
80108d17 vector137
8010d500 _binary_initcode_start
80106f0c swtch
8010923f vector247
801088f1 vector22
80109023 vector202
80109328 seginit
80101cc8 iunlockput
80108ab3 vector72
80108a1a vector55
80108c99 vector126
80108a74 vector65
80108927 vector28
8010d5b6 _binary_entryother_end
80108e97 vector169
801001ef bwrite
80109197 vector233
801083e1 idtinit
80104c17 exit
80107eaa sys_wait
80107e98 sys_exit
8010232a dirlink
0000002c _binary_initcode_size
80108d8f vector147
801026ca ideinit
80109b9d loaduvm
80108bd3 vector104
80108c3f vector116
80114980 ptable
80102b78 ioapicenable
8010810a sys_getprocs
80106bd7 popcli
8010d0bc vectors
801089ff vector52
801088c6 vector17
80108f4b vector184
80106ee5 strlen
80103b77 mpbcpu
80107d93 sys_pipe
801016dc iinit
80103ff6 picinit
8010905f vector207
80109b27 inituvm
80108f93 vector190
801091df vector239
80108b79 vector94
80108b70 vector93
801033cd initlog
80108f7b vector188
801089db vector48
801029ab iderw
801090ef vector219
80108d9b vector148
80109107 vector221
80102d04 kalloc
801131e0 devsw
80107eea sys_getpid
80108afb vector80
80108eaf vector171
80108de3 vector154
8010896f vector36
801040df pipealloc
80108047 sys_getppid
801091af vector235
80108bdc vector105
80107bd7 sys_chdir
80113260 icache
80108d83 vector146
80108f9f vector191
80108bca vector103
80107b3d sys_mknod
801030e4 lapicstartap
801099b4 switchuvm
80106b92 pushcli
80102c06 kinit2
80108898 vector11
801088ad vector14
801011d7 filestat
