00000000 .text
0000083e .rodata
0000085c .eh_frame
00000aa8 .data
00000abc .bss
00000000 .comment
00000000 .debug_aranges
00000000 .debug_info
00000000 .debug_abbrev
00000000 .debug_line
00000000 .debug_str
00000000 .debug_loc
00000000 kill.c
00000000 ulib.c
00000072 stosb
00000000 printf.c
000003b1 putc
000003d4 printint
00000aa8 digits.1128
00000000 umalloc.c
00000abc base
00000ac4 freep
000006fb morecore
00000098 strcpy
00000381 getgid
00000488 printf
00000284 memmove
00000311 mknod
000003a9 setpriority
0000017b gets
00000349 getpid
00000379 getuid
0000075b malloc
00000359 sleep
000002d9 pipe
000002e9 write
00000321 fstat
000002f9 kill
00000339 chdir
00000301 exec
000002d1 wait
00000399 setgid
000002e1 read
00000319 unlink
000002c1 fork
00000351 sbrk
00000361 uptime
00000ab9 __bss_start
0000012e memset
00000000 main
00000389 getppid
000000c8 strcmp
00000341 dup
000003a1 getprocs
000001ea stat
00000ab9 _edata
00000ac8 _end
00000371 date
00000369 halt
00000329 link
000002c9 exit
00000237 atoi
00000107 strlen
00000309 open
00000148 strchr
00000391 setuid
00000331 mkdir
000002f1 close
00000619 free
