00000000 .text
000008e0 .rodata
0000094c .eh_frame
00000bb4 .data
00000bc8 .bss
00000000 .comment
00000000 .debug_aranges
00000000 .debug_info
00000000 .debug_abbrev
00000000 .debug_line
00000000 .debug_str
00000000 .debug_loc
00000000 ps-test.c
00000000 ulib.c
00000114 stosb
00000000 printf.c
00000453 putc
00000476 printint
00000bb4 digits.1128
00000000 umalloc.c
00000bc8 base
00000bd0 freep
0000079d morecore
0000013a strcpy
00000423 getgid
0000052a printf
00000326 memmove
000003b3 mknod
0000044b setpriority
0000021d gets
000003eb getpid
0000041b getuid
000007fd malloc
000003fb sleep
00000000 forktest
0000037b pipe
0000038b write
000003c3 fstat
0000039b kill
000003db chdir
000003a3 exec
00000373 wait
0000043b setgid
00000383 read
000003bb unlink
00000363 fork
000003f3 sbrk
00000403 uptime
00000bc5 __bss_start
000001d0 memset
000000bb main
0000042b getppid
0000016a strcmp
000003e3 dup
00000443 getprocs
0000028c stat
00000bc5 _edata
00000bd4 _end
00000413 date
0000040b halt
000003cb link
0000036b exit
000002d9 atoi
000001a9 strlen
000003ab open
000001ea strchr
00000433 setuid
000003d3 mkdir
00000393 close
000006bb free
