00000000 .text
000008c8 .rodata
00000958 .eh_frame
00000ba8 .data
00000bbc .bss
00000000 .comment
00000000 .debug_aranges
00000000 .debug_info
00000000 .debug_abbrev
00000000 .debug_line
00000000 .debug_str
00000000 .debug_loc
00000000 time.c
00000000 ulib.c
000000fc stosb
00000000 printf.c
0000043b putc
0000045e printint
00000ba8 digits.1128
00000000 umalloc.c
00000bbc base
00000bc4 freep
00000785 morecore
00000122 strcpy
0000040b getgid
00000512 printf
0000030e memmove
0000039b mknod
00000433 setpriority
00000205 gets
000003d3 getpid
00000403 getuid
000007e5 malloc
000003e3 sleep
00000363 pipe
00000373 write
000003ab fstat
00000383 kill
000003c3 chdir
0000038b exec
0000035b wait
00000423 setgid
0000036b read
000003a3 unlink
0000034b fork
000003db sbrk
000003eb uptime
00000bb9 __bss_start
000001b8 memset
00000000 main
00000413 getppid
00000152 strcmp
000003cb dup
0000042b getprocs
00000274 stat
00000bb9 _edata
00000bc8 _end
000003fb date
000003f3 halt
000003b3 link
00000353 exit
000002c1 atoi
00000191 strlen
00000393 open
000001d2 strchr
0000041b setuid
000003bb mkdir
0000037b close
000006a3 free
