00000000 .text
0000081d .rodata
00000824 .eh_frame
00000a74 .data
00000a88 .bss
00000000 .comment
00000000 .debug_aranges
00000000 .debug_info
00000000 .debug_abbrev
00000000 .debug_line
00000000 .debug_str
00000000 .debug_loc
00000000 halt.c
00000000 ulib.c
00000024 stosb
00000000 printf.c
00000390 putc
000003b3 printint
00000a74 digits.1128
00000000 umalloc.c
00000a88 base
00000a90 freep
000006da morecore
0000004a strcpy
00000360 getgid
00000467 printf
00000263 memmove
000002f0 mknod
00000388 setpriority
0000012d gets
00000328 getpid
00000358 getuid
0000073a malloc
00000338 sleep
000002b8 pipe
000002c8 write
00000300 fstat
000002d8 kill
00000318 chdir
000002e0 exec
000002b0 wait
00000378 setgid
000002c0 read
000002f8 unlink
000002a0 fork
00000330 sbrk
00000340 uptime
00000a85 __bss_start
000000e0 memset
00000000 main
00000368 getppid
0000007a strcmp
00000320 dup
00000380 getprocs
0000019c stat
00000a85 _edata
00000a94 _end
00000350 date
00000348 halt
00000308 link
000002a8 exit
000001e9 atoi
000000b9 strlen
000002e8 open
000000fa strchr
00000370 setuid
00000310 mkdir
000002d0 close
000005f8 free
