00000000 .text
000008fa .rodata
00000954 .eh_frame
00000b9c .data
00000bb8 .bss
00000000 .comment
00000000 .debug_aranges
00000000 .debug_info
00000000 .debug_abbrev
00000000 .debug_line
00000000 .debug_str
00000000 .debug_loc
00000000 init.c
00000000 ulib.c
00000101 stosb
00000000 printf.c
0000046d putc
00000490 printint
00000ba4 digits.1128
00000000 umalloc.c
00000bb8 base
00000bc0 freep
000007b7 morecore
00000127 strcpy
0000043d getgid
00000544 printf
00000b9c argv
00000340 memmove
000003cd mknod
00000465 setpriority
0000020a gets
00000405 getpid
00000435 getuid
00000817 malloc
00000415 sleep
00000395 pipe
000003a5 write
000003dd fstat
000003b5 kill
000003f5 chdir
000003bd exec
0000038d wait
00000455 setgid
0000039d read
000003d5 unlink
0000037d fork
0000040d sbrk
0000041d uptime
00000bb5 __bss_start
000001bd memset
00000000 main
00000445 getppid
00000157 strcmp
000003fd dup
0000045d getprocs
00000279 stat
00000bb5 _edata
00000bc4 _end
0000042d date
00000425 halt
000003e5 link
00000385 exit
000002c6 atoi
00000196 strlen
000003c5 open
000001d7 strchr
0000044d setuid
000003ed mkdir
000003ad close
000006d5 free
