80100000 .text
80109204 .rodata
80109a8e .stab
80109a8f .stabstr
8010a000 .data
8010c5c0 .bss
00000000 .debug_line
00000000 .debug_info
00000000 .debug_abbrev
00000000 .debug_aranges
00000000 .debug_loc
00000000 .debug_str
00000000 .comment
00000000 .debug_ranges
00000000 bio.c
801000b3 bget
00000000 console.c
801002d4 inb
801002f1 outb
80100310 cli
8010c5c0 panicked
8010c5e0 cons
80100317 printint
8010a004 digits.1630
80100792 consputc
8010a000 crt
80100601 cgaputc
00000000 exec.c
00000000 file.c
00000000 fs.c
80101464 bzero
801014b8 balloc
80101604 bfree
801018ef iget
80101e0c itrunc
80101ced bmap
80102402 skipelem
801024a6 namex
00000000 ide.c
801025fd inb
8010261a insl
80102640 outb
8010265f outsl
8010c620 idelock
8010c654 idequeue
8010c658 havedisk1
80102685 idewait
80102778 idestart
00000000 ioapic.c
80102a90 ioapicread
80102aa7 ioapicwrite
00000000 kalloc.c
80102bc0 v2p
00000000 kbd.c
80102d59 inb
8010a020 shiftcode
8010a120 togglecode
8010a220 normalmap
8010a320 shiftmap
8010a420 ctlmap
8010c65c shift.1459
8010a520 charcode.1460
00000000 lapic.c
80102ede inb
80102efb outb
80102f1a readeflags
80102f2a lapicw
8010c660 n.1540
801031c5 cmos_read
801031f5 fill_rtcdate
00000000 log.c
801035c9 recover_from_log
8010341a install_trans
801034d2 read_head
80103546 write_head
801037f3 commit
8010373b write_log
00000000 main.c
801038f9 v2p
80103906 p2v
80103913 xchg
80103a43 startothers
801039fd mpmain
801039e3 mpenter
00000000 mp.c
80103b2e p2v
80103b3b inb
80103b58 outb
8010c664 bcpu
80103b95 sum
80103bcd mpsearch1
80103c39 mpsearch
80103cf5 mpconfig
00000000 picirq.c
80103f65 outb
8010c000 irqmask
80103f84 picsetmask
00000000 pipe.c
00000000 proc.c
801044dc hlt
801044e3 readeflags
801044f3 sti
8010c668 initproc
801044fa addToStateList
8010451a addToEnd
80104590 removeFromStateList
8010464f assertState
80104670 fromToStateList
80104841 allocproc
8010541c wakeup1
8010c020 first.1728
8010c008 states
00000000 spinlock.c
80105aee readeflags
80105afe cli
80105b05 sti
80105b0c xchg
00000000 string.c
80105d5f stosb
80105d85 stosl
00000000 syscall.c
8010c040 syscalls
00000000 sysfile.c
8010620c argfd
80106281 fdalloc
8010663e isdirempty
80106884 create
00000000 sysproc.c
80106f82 outw
00000000 timer.c
801072c7 outb
00000000 trap.c
8010734e atom_inc
8010735a lidt
80107384 rcr2
00000000 uart.c
8010775d inb
8010777a outb
8010c66c uart
801078f2 uartgetc
00000000 vm.c
801083c0 lgdt
801083ea ltr
80108401 loadgs
80108417 lcr3
80108423 v2p
80108430 p2v
801088b2 walkpgdir
80108952 mappages
8010c4c0 kmap
80107154 sys_getgid
80100a2d consoleread
80108318 vector242
80107d6f vector119
8010000c entry
80107c4f vector87
80107c46 vector86
80105fae safestrcpy
801063fa sys_close
80108384 vector251
80107c73 vector91
80107a69 vector33
80107f58 vector162
801052d0 yield
80113280 log
80113240 kmem
801081bc vector213
80107d0c vector108
80107799 uartinit
80107ac3 vector43
801030c3 lapiceoi
801072e6 timerinit
8010472c readysleep
80107f7c vector165
8010806c vector185
80102ac2 ioapicinit
80107d4b vector115
8010122e fileread
80107d8a vector122
80107010 sys_sbrk
80113360 ioapicid
8010727b sys_setpriority
80107f10 vector156
801070d7 sys_halt
8010833c vector245
80113234 ioapic
8010809c vector189
8010798d vector7
80107b65 vector61
80107a18 vector24
80107d27 vector111
80108120 vector200
80107b9b vector67
80107e38 vector138
80107bda vector74
801051de sched
80105e6a memmove
80107b41 vector57
80106186 syscall
801081c8 vector214
80107cbb vector99
801020cd writei
80107143 sys_getuid
80107e5c vector141
80106fa3 sys_fork
8010d680 bcache
80107fd0 vector172
8010830c vector241
80113364 ismp
80105c01 getcallerpcs
80106bf3 sys_mkdir
8010839c vector253
80107969 vector3
80107960 vector2
80102255 namecmp
80108264 vector227
80108198 vector210
80106155 argstr
80108240 vector224
80105ae4 setpriority
80107ab1 vector41
801003c6 cprintf
8010109e filedup
801025c6 namei
80105757 printfree
801079fd vector21
80100034 binit
8010800c vector177
80107d66 vector118
80107bb6 vector70
80107bad vector69
801082dc vector237
80107b80 vector64
80107a33 vector27
80107df0 vector132
80108078 vector186
80106324 sys_read
801081ec vector217
80106034 fetchint
801089e2 setupkvm
80105eea memcpy
80108f0f freevm
80107957 vector1
80108018 vector178
80107a96 vector38
80102c67 kfree
801082e8 vector238
80101bd8 iput
80107dfc vector133
80107bd1 vector73
80107e80 vector144
801083a8 vector254
80101422 readsb
8010c004 nextpid
80107ccd vector101
801081a4 vector211
80103da0 mpinit
80107fe8 vector174
80108324 vector243
8010306a cpunum
80101013 fileinit
80116800 gdt
80105b26 initlock
80107dc0 vector128
80109166 copyout
80107c19 vector81
80105364 sleep
801030de microdelay
801079bb vector13
80107b0b vector51
801079d2 vector16
801117a0 input
80108300 vector240
80107b26 vector54
801079eb vector19
80107c7c vector92
80108330 vector244
80101f30 stati
80107e50 vector140
80106fcf sys_kill
80107ad5 vector45
80107c07 vector79
80104232 pipeclose
8010827c vector229
80107f28 vector158
8010644a sys_fstat
80100b3e consolewrite
80107a9f vector39
80107fa0 vector168
80103677 end_op
80107a7b vector35
80107d39 vector113
80102c2a freerange
80107da5 vector125
80105728 printready
80108d89 allocuvm
80107343 trapret
801081e0 vector216
80107b77 vector63
80107a2a vector26
801080cc vector193
80102f4c lapicinit
801080f0 vector196
8010818c vector209
80107972 vector4
80107fb8 vector170
8010c670 stack
80107e20 vector136
801079a6 vector10
80108168 vector206
80101b66 iunlock
8010705c sys_sleep
801083b4 vector255
8010803c vector181
80107b53 vector59
80107c3d vector85
80107c34 vector84
80108054 vector183
80107f34 vector159
801081b0 vector212
8010649a sys_link
80107ae7 vector47
80108270 vector228
80107aba vector42
80107d42 vector114
8010910c uva2ka
80107ff4 vector175
80107e74 vector143
80101031 filealloc
80105479 wakeup
80107dd8 vector130
80108348 vector246
801071dd sys_setgid
8010799d vector9
80107e68 vector142
80107cc4 vector100
8010812c vector201
80108faf clearpteu
80107395 tvinit
80107b5c vector60
80107a0f vector23
801019ce idup
801082d0 vector236
80102ec5 kbdintr
80106a56 sys_open
80108294 vector231
80107b92 vector66
80107a45 vector29
80101f76 readi
80107e14 vector135
801007f9 consoleintr
801054b0 kill
80107bf5 vector77
80101757 ialloc
80108030 vector180
80116838 kpgdir
80108180 vector208
80103266 cmostime
80107935 uartintr
80107cb2 vector98
80107ca9 vector97
80108000 vector176
801080d8 vector194
80107a60 vector32
8011683c end
80108114 vector199
80107de4 vector131
80108390 vector252
801012e6 filewrite
8010794e vector0
801060d0 argint
80100c0f exec
80107e8c vector145
8010638f sys_write
80105baf release
8010606e fetchstr
80107d03 vector107
80107aa8 vector40
80104fb8 wait
80107cd6 vector102
8010b000 entrypgdir
0010000c _start
80107b38 vector56
80107ba4 vector68
80107984 vector6
8010c52c _binary_initcode_end
80100000 multiboot_header
80107dcc vector129
8010510c scheduler
8010581e setgid
80102270 dirlookup
801080fc vector197
801010ef fileclose
801035eb begin_op
80107ee0 vector152
80108a94 kvmalloc
80108288 vector230
80105f00 strncmp
80107a8d vector37
8010815c vector205
80107f4c vector161
801042dc pipewrite
80105f56 strncpy
80107bbf vector71
80108ff0 copyuvm
80111840 ftable
80107f40 vector160
801060f8 argptr
801081d4 vector215
80107f1c vector157
801062cd sys_dup
80107d30 vector112
80100566 panic
8010531e forkret
80108048 vector182
801079b4 vector12
80105e12 memcmp
80102d76 kbdgetc
80107d15 vector109
801079f4 vector20
80104c6b fork
8010718d sys_setuid
80107b1d vector53
801079e2 vector18
0000008a _binary_entryother_size
80113380 cpus
80107c97 vector95
80105c7b holding
80112240 sb
80105b48 acquire
80108258 vector226
80104796 zombie
801025e2 nameiparent
80107af9 vector49
80107acc vector44
8011327c lapic
80107bfe vector78
80107323 alltraps
80107fdc vector173
80107d5d vector117
80107c22 vector82
80103fc9 picenable
80108228 vector222
80107996 vector8
80107ebc vector149
8010182e iupdate
8010a000 data
80105dab memset
801082a0 vector232
8010392d main
80108aac switchkvm
80107cfa vector106
80108210 vector220
80107c6a vector90
80107f64 vector163
801082b8 vector234
80103823 log_write
801066a1 sys_unlink
80107b6e vector62
80107a21 vector25
80108108 vector198
80107109 sys_date
80107d78 vector120
8010c52c _binary_entryother_start
80102bcd kinit1
80107b02 vector50
801079c9 vector15
80107ed4 vector151
80107c2b vector83
80107c61 vector89
80107c58 vector88
8010750e trap
801070c4 sys_uptime
80108024 vector179
80107a72 vector34
80107ade vector46
80107e08 vector134
80108234 vector223
80115fe0 idt
801046ef count
801081f8 vector218
80104823 pinit
80108e52 deallocuvm
8010824c vector225
8010585a getprocs
80108084 vector187
80104bc8 growproc
80113960 ncpu
80107a4e vector30
801049c2 userinit
801001b6 bread
80107db7 vector127
801043da piperead
801167e0 ticks
801080c0 vector192
80107f88 vector166
80100bb7 consoleinit
80107bec vector76
80107be3 vector75
801028d6 ideintr
801080e4 vector195
80107ec8 vector150
80107b4a vector58
80108360 vector248
80107d93 vector123
80107ca0 vector96
80107a57 vector31
80108144 vector203
80107e44 vector139
80107eec vector153
80107f70 vector164
8010554b procdump
80107d81 vector121
8010788d uartputc
8010797b vector5
80107f94 vector167
80107f04 vector155
8010836c vector249
8010022e brelse
80108378 vector250
80107d9c vector124
80107d1e vector110
80108150 vector204
80101a08 ilock
80106da2 sys_exec
80107e2c vector137
8010c500 _binary_initcode_start
8010601f swtch
80108354 vector247
80107a06 vector22
80108138 vector202
8010843d seginit
80101cc8 iunlockput
80107bc8 vector72
80107b2f vector55
80107dae vector126
80107b89 vector65
80107a3c vector28
8010c5b6 _binary_entryother_end
80107fac vector169
801001ef bwrite
801082ac vector233
801074f6 idtinit
80104e6a exit
80106fc2 sys_wait
80106fb0 sys_exit
8010232a dirlink
0000002c _binary_initcode_size
80107ea4 vector147
801026ca ideinit
80108cb2 loaduvm
80107ce8 vector104
80107d54 vector116
80113980 ptable
80102b78 ioapicenable
8010722d sys_getprocs
80105784 printsleep
80105cea popcli
8010c0bc vectors
80107b14 vector52
801079db vector17
80108060 vector184
80105ff8 strlen
80103b77 mpbcpu
80106eaa sys_pipe
801016dc iinit
80103ff6 picinit
80108174 vector207
80108c3c inituvm
801080a8 vector190
801082f4 vector239
80107c8e vector94
80107c85 vector93
801033cd initlog
80108090 vector188
801057b3 printzombie
80107af0 vector48
801029ab iderw
80108204 vector219
80107eb0 vector148
8010821c vector221
80102d04 kalloc
801121e0 devsw
80107002 sys_getpid
80107c10 vector80
80107fc4 vector171
80107ef8 vector154
80107a84 vector36
801040df pipealloc
80107165 sys_getppid
801082c4 vector235
80107cf1 vector105
80106cee sys_chdir
80112260 icache
801057e2 setuid
80107e98 vector146
801080b4 vector191
80107cdf vector103
80106c54 sys_mknod
801030e4 lapicstartap
80108ac9 switchuvm
80105ca5 pushcli
80102c06 kinit2
801079ad vector11
801079c2 vector14
801011d7 filestat
