00000000 .text
00000889 .rodata
000008c0 .eh_frame
00000b0c .data
00000b20 .bss
00000000 .comment
00000000 .debug_aranges
00000000 .debug_info
00000000 .debug_abbrev
00000000 .debug_line
00000000 .debug_str
00000000 .debug_loc
00000000 rm.c
00000000 ulib.c
00000090 stosb
00000000 printf.c
000003fc putc
0000041f printint
00000b0c digits.1128
00000000 umalloc.c
00000b20 base
00000b28 freep
00000746 morecore
000000b6 strcpy
000003cc getgid
000004d3 printf
000002cf memmove
0000035c mknod
000003f4 setpriority
00000199 gets
00000394 getpid
000003c4 getuid
000007a6 malloc
000003a4 sleep
00000324 pipe
00000334 write
0000036c fstat
00000344 kill
00000384 chdir
0000034c exec
0000031c wait
000003e4 setgid
0000032c read
00000364 unlink
0000030c fork
0000039c sbrk
000003ac uptime
00000b1d __bss_start
0000014c memset
00000000 main
000003d4 getppid
000000e6 strcmp
0000038c dup
000003ec getprocs
00000208 stat
00000b1d _edata
00000b2c _end
000003bc date
000003b4 halt
00000374 link
00000314 exit
00000255 atoi
00000125 strlen
00000354 open
00000166 strchr
000003dc setuid
0000037c mkdir
0000033c close
00000664 free
